<?xml version="1.0" encoding="UTF-8" standalone="no"?>
<!-- Created with Inkscape (http://www.inkscape.org/) by Deni Symonds in 2007 symode09@hotmail.com -->

<svg
   xmlns:dc="http://purl.org/dc/elements/1.1/"
   xmlns:cc="http://creativecommons.org/ns#"
   xmlns:rdf="http://www.w3.org/1999/02/22-rdf-syntax-ns#"
   xmlns:svg="http://www.w3.org/2000/svg"
   xmlns="http://www.w3.org/2000/svg"
   xmlns:sodipodi="http://sodipodi.sourceforge.net/DTD/sodipodi-0.dtd"
   xmlns:inkscape="http://www.inkscape.org/namespaces/inkscape"
   width="522.48999"
   height="464.26999"
   id="svg2"
   sodipodi:version="0.32"
   inkscape:version="0.48.4 r9939"
   version="1.0"
   sodipodi:docname="p2.svg"
   inkscape:output_extension="org.inkscape.output.svg.inkscape">
  <defs
     id="defs4" />
  <sodipodi:namedview
     id="base"
     pagecolor="#ffffff"
     bordercolor="#666666"
     borderopacity="1.0"
     gridtolerance="10000"
     guidetolerance="10"
     objecttolerance="10"
     inkscape:pageopacity="0.0"
     inkscape:pageshadow="2"
     inkscape:zoom="1"
     inkscape:cx="368.84925"
     inkscape:cy="79.050617"
     inkscape:document-units="px"
     inkscape:current-layer="layer1"
     width="522.49px"
     height="464.27px"
     inkscape:window-width="1301"
     inkscape:window-height="744"
     inkscape:window-x="65"
     inkscape:window-y="24"
     showgrid="false"
     inkscape:window-maximized="1" />
  <metadata
     id="metadata7">
    <rdf:RDF>
      <cc:Work
         rdf:about="">
        <dc:format>image/svg+xml</dc:format>
        <dc:type
           rdf:resource="http://purl.org/dc/dcmitype/StillImage" />
        <dc:title />
      </cc:Work>
    </rdf:RDF>
  </metadata>
  <g
     inkscape:label="Layer 1"
     inkscape:groupmode="layer"
     id="layer1">
    <path
       style="fill:#000040;fill-opacity:1"
       d="m 176.68941,410.48169 c -3.6123,-0.51412 -8.70237,-1.45076 -11.31126,-2.0809 -5.8768,-1.41939 -18.34625,-6.05882 -22.25761,-8.2802 -1.60546,-0.91256 -3.74002,-2.05938 -4.74344,-2.54868 -4.75714,-2.32136 -16.63365,-12.10633 -25.54151,-21.04402 C 83.363363,346.95845 68.30248,311.41375 68.326327,271.48386 68.35197,231.56634 82.5291,193.11423 110.93894,155.92215 c 5.94111,-7.77823 9.00077,-11.25534 20.14058,-22.89272 28.35869,-29.62424 71.94248,-55.345437 110.92323,-65.46269 1.40478,-0.36451 4.3603,-1.15488 6.5678,-1.757547 2.20752,-0.60191 5.65563,-1.299516 7.66247,-1.550815 2.00683,-0.251402 4.63397,-0.762631 5.83807,-1.137387 3.49817,-1.088401 25.49949,-2.89127 34.66349,-2.840841 4.61573,0.02564 12.374,0.447772 17.2407,0.939368 l 8.84844,0.892683 -3.59595,-5.74309 c -5.83959,-9.327616 -6.2749,-12.229821 -1.82833,-12.191843 4.08737,0.03281 15.96519,6.014845 23.4855,11.825147 4.75466,3.672871 14.41149,11.925194 16.38029,13.996878 1.38319,1.455853 2.86096,2.653091 3.28392,2.660429 1.12384,0.01832 10.19413,4.295984 16.09393,7.587551 8.23635,4.594781 16.43874,10.849203 22.28105,16.987484 9.16751,9.632953 10.03212,14.096233 3.91683,20.217743 l -3.32025,3.32371 1.92612,3.14548 c 1.05931,1.73055 2.93538,4.7898 4.16897,6.79863 4.34533,7.07625 12.83169,24.20984 16.46231,33.23719 9.89282,24.597 13.60925,43.02793 13.62487,67.57012 0.0114,14.94285 -0.83018,21.44275 -4.34118,33.60244 -7.11733,24.64892 -20.66544,44.24839 -43.40746,62.79557 -3.41163,2.78255 -7.68071,6.26971 -9.48685,7.74893 -9.02252,7.39135 -33.36827,23.45187 -49.25868,32.49647 -12.36881,7.04 -38.51808,19.56993 -52.54256,25.17776 -8.9199,3.56632 -26.31559,9.41533 -32.83912,11.0416 -12.14245,3.0263 -14.9364,3.56815 -27.62644,5.36154 -14.60479,2.06303 -28.36482,2.31733 -39.51128,0.72975 z m 43.4206,-76.61364 c 13.04092,-1.97363 39.1426,-9.40329 51.44792,-14.64479 1.60547,-0.68414 4.39679,-1.74704 6.20294,-2.36223 1.80616,-0.6159 4.59749,-1.70726 6.20296,-2.42607 1.60546,-0.71882 5.05356,-2.19292 7.66245,-3.27625 5.03723,-2.09039 26.11359,-12.40369 31.01472,-15.17568 9.52005,-5.38453 12.41733,-7.09325 19.33858,-11.40516 4.21434,-2.62539 7.99084,-5.04037 8.39222,-5.3669 0.40136,-0.32657 3.52108,-2.68821 6.9327,-5.24857 9.93814,-7.4568 15.81086,-14.58198 20.43724,-24.79494 9.86661,-21.78241 8.3396,-54.94289 -4.17517,-90.66813 -3.21436,-9.17565 -1.50746,-8.03683 -15.89719,-10.60596 -4.81641,-0.85977 -11.71262,-2.16955 -15.32492,-2.91098 -12.00204,-2.46176 -21.40351,-3.1674 -36.27029,-2.72182 -8.82831,0.26454 -15.98906,0.85907 -19.19131,1.59249 -2.80957,0.64353 -6.91447,1.50625 -9.12199,1.91751 -4.45727,0.82911 -5.08232,1.00881 -16.21426,4.64521 -10.71942,3.50191 -19.82008,7.54299 -29.39561,13.05379 -5.8355,3.35805 -21.02752,13.2547 -22.42172,14.6061 -0.51179,0.49598 -2.90087,2.43619 -5.30908,4.3106 -5.28914,4.11704 -13.80796,12.27002 -19.96449,19.1081 -16.43043,18.24832 -28.20173,40.44564 -31.9091,60.17245 -1.61992,8.61902 -1.09509,23.93007 1.07025,31.22167 3.33449,11.22842 10.18028,22.2069 20.41746,32.74497 6.42086,6.60942 9.55217,8.09447 20.16927,9.56787 3.78899,0.52614 18.68597,-0.24119 25.90642,-1.33328 z"
       id="path2221"
       inkscape:connector-curvature="0"
       sodipodi:nodetypes="cccccsccccsccccccccccccccscssccccccccccscccsccsccccccccccssscc" />
    <path
       style="fill:#000040;stroke:none"
       d="M 175.21941,409.55313 C 159.3139,407.04178 141.82674,399.97236 130.7727,391.58494 117.7859,381.73101 100.08538,362.39855 90.686576,347.80297 67.206136,311.33977 62.622635,262.3863 78.408381,216.66737 93.714217,172.33836 127.48461,130.17404 170.67372,101.46868 215.30586,71.804217 262.57521,58.212512 309.51018,61.54801 c 7.18986,0.510956 13.22224,0.779236 13.4053,0.596176 0.18306,-0.18306 -1.49478,-3.460371 -3.72855,-7.282912 -4.26591,-7.300053 -4.88577,-9.431576 -2.7987,-9.623844 6.5978,-0.607813 17.70537,5.791003 33.58757,19.349024 5.87882,5.018529 11.82564,9.021778 16.82924,11.329034 14.46264,6.668998 27.46502,16.349828 35.33947,26.311752 4.92542,6.23113 4.99349,9.15946 0.33928,14.59685 l -3.55546,4.15377 4.59576,7.56984 c 7.25938,11.95719 18.14355,35.40108 22.57763,48.63096 4.96924,14.82659 6.82585,23.74928 8.32623,40.01498 4.21708,45.71782 -10.33844,79.64243 -47.47692,110.65464 -27.3926,22.87397 -60.97735,43.02715 -101.62499,60.98202 -39.68016,17.52752 -81.04139,25.31199 -110.10663,20.72283 l 0,0 z m 47.59739,-75.82586 c 30.9715,-5.31751 77.4693,-23.71036 112.16365,-44.36788 32.25093,-19.20266 42.06138,-30.47212 47.97263,-55.10711 1.88173,-7.84211 1.57844,-32.51105 -0.54381,-44.2307 -1.87404,-10.34902 -8.02278,-32.35167 -10.23786,-36.63516 -1.82646,-3.53199 -2.27623,-3.69081 -20.17531,-7.1242 -38.59942,-7.40411 -65.22647,-5.83066 -95.96449,5.67077 -14.11264,5.28061 -22.22242,9.50942 -37.37564,19.48939 -10.45054,6.88274 -15.92687,11.44743 -26.81948,22.3548 -19.114,19.1399 -29.05969,34.33534 -36.59988,55.91882 -3.1417,8.99299 -3.25018,9.84699 -3.23484,25.46746 0.0157,16.03053 0.0431,16.22585 3.35253,23.93171 6.44639,15.01017 21.70461,32.7047 30.12507,34.93521 6.00819,1.59152 27.30951,1.41859 37.33743,-0.30311 z"
       id="path2983"
       inkscape:connector-curvature="0" />
    <path
       style="fill:#000040;stroke:none"
       d="M 175.21941,409.55313 C 159.3139,407.04178 141.82674,399.97236 130.7727,391.58494 117.7859,381.73101 100.08538,362.39855 90.686576,347.80297 67.206136,311.33977 62.622635,262.3863 78.408381,216.66737 93.714217,172.33836 127.48461,130.17404 170.67372,101.46868 215.30586,71.804217 262.57521,58.212512 309.51018,61.54801 c 7.18986,0.510956 13.22224,0.779236 13.4053,0.596176 0.18306,-0.18306 -1.49478,-3.460371 -3.72855,-7.282912 -4.26591,-7.300053 -4.88577,-9.431576 -2.7987,-9.623844 6.5978,-0.607813 17.70537,5.791003 33.58757,19.349024 5.87882,5.018529 11.82564,9.021778 16.82924,11.329034 14.46264,6.668998 27.46502,16.349828 35.33947,26.311752 4.92542,6.23113 4.99349,9.15946 0.33928,14.59685 l -3.55546,4.15377 4.59576,7.56984 c 7.25938,11.95719 18.14355,35.40108 22.57763,48.63096 4.96924,14.82659 6.82585,23.74928 8.32623,40.01498 4.21708,45.71782 -10.33844,79.64243 -47.47692,110.65464 -27.3926,22.87397 -60.97735,43.02715 -101.62499,60.98202 -39.68016,17.52752 -81.04139,25.31199 -110.10663,20.72283 l 0,0 z m 47.59739,-75.82586 c 30.9715,-5.31751 77.4693,-23.71036 112.16365,-44.36788 32.25093,-19.20266 42.06138,-30.47212 47.97263,-55.10711 1.88173,-7.84211 1.57844,-32.51105 -0.54381,-44.2307 -1.87404,-10.34902 -8.02278,-32.35167 -10.23786,-36.63516 -1.82646,-3.53199 -2.27623,-3.69081 -20.17531,-7.1242 -38.59942,-7.40411 -65.22647,-5.83066 -95.96449,5.67077 -14.11264,5.28061 -22.22242,9.50942 -37.37564,19.48939 -10.45054,6.88274 -15.92687,11.44743 -26.81948,22.3548 -19.114,19.1399 -29.05969,34.33534 -36.59988,55.91882 -3.1417,8.99299 -3.25018,9.84699 -3.23484,25.46746 0.0157,16.03053 0.0431,16.22585 3.35253,23.93171 6.44639,15.01017 21.70461,32.7047 30.12507,34.93521 6.00819,1.59152 27.30951,1.41859 37.33743,-0.30311 z"
       id="path2985"
       inkscape:connector-curvature="0" />
    <path
       style="fill:#000040"
       d="M 170.67372,408.014 C 157.16335,405.08313 145.26704,400.44603 135.92183,394.46797 120.36572,384.51685 97.781533,359.8264 87.315465,341.32845 66.181764,303.97629 64.135548,253.23613 81.958581,208.49339 109.58679,139.13586 180.62508,80.953721 256.44251,65.586678 c 15.86486,-3.215567 31.42656,-4.372255 49.84419,-3.704876 9.30603,0.337211 16.92006,0.408547 16.92006,0.158524 0,-0.250023 -1.59099,-3.349039 -3.53554,-6.886702 -4.59277,-8.355516 -4.6431,-10.199456 -0.25254,-9.25178 6.73202,1.453066 14.75954,6.405508 29.54697,18.228523 5.00025,3.997861 14.19963,10.075034 20.44305,13.504828 13.89431,7.632769 21.36738,13.165092 29.43914,21.793829 7.39688,7.907286 7.91963,10.843146 3.0981,17.399406 l -3.08317,4.19247 6.58824,11.91644 c 12.47885,22.57101 21.96298,46.30362 25.89139,64.78927 1.38146,6.50064 2.27195,15.51264 2.66837,27.00465 0.68117,19.74624 -0.86059,32.18757 -5.78172,46.65611 -11.12767,32.71636 -44.50986,64.70219 -99.17907,95.03047 -42.6973,23.68675 -79.23409,37.41257 -111.97542,42.06592 -14.67171,2.08521 -35.59994,1.87333 -46.40084,-0.46976 l 0,0 z m 53.15323,-74.29711 c 38.22698,-6.60743 99.72384,-33.56248 131.99198,-57.85418 23.23261,-17.48969 31.13416,-38.14503 28.09354,-73.439 -1.11298,-12.919 -6.78518,-38.03304 -10.67972,-47.28517 -2.07559,-4.93093 -4.94416,-6.13732 -22.0664,-9.28012 -41.98795,-7.70694 -69.50112,-5.28034 -103.1666,9.09906 -21.16493,9.04008 -38.50235,21.05125 -56.37288,39.05448 -18.28366,18.41943 -26.45138,30.20118 -34.06901,49.14376 -5.23339,13.01374 -6.18875,18.89569 -5.81241,35.78543 0.29315,13.15604 0.37739,13.5971 4.08985,21.41449 6.82222,14.36566 21.77086,31.62351 29.26973,33.79125 5.30091,1.53235 28.88394,1.27047 38.72192,-0.43 z"
       id="path2986"
       inkscape:connector-curvature="0" />
    <path
       style="fill:#000040"
       d="m 173.09065,407.97176 c -12.75928,-2.28838 -28.716,-8.6376 -38.78242,-15.43165 -10.24861,-6.917 -32.90858,-30.9365 -42.118673,-44.64567 -19.966487,-29.71998 -26.605633,-73.1621 -17.367636,-113.64216 6.24721,-27.3747 20.599332,-55.92085 40.629879,-80.8122 9.83005,-12.21552 30.54109,-32.14666 43.54605,-41.90627 35.62713,-26.736525 74.31451,-43.05346 113.67478,-47.94392 4.70789,-0.584949 18.00402,-1.063543 29.54696,-1.063543 16.12606,0 20.98292,-0.292469 20.96886,-1.262691 -0.0101,-0.69448 -1.37376,-3.721802 -3.03046,-6.727382 -3.03479,-5.50576 -3.73722,-8.172368 -2.15273,-8.172368 4.23919,0 14.98176,6.302099 29.82069,17.494217 4.88109,3.68152 15.43382,10.660725 23.45049,15.509347 20.21935,12.228997 32.74252,23.99901 32.74252,30.77333 0,1.3333 -1.13642,4.09659 -2.52538,6.14062 -1.38896,2.04404 -2.52538,4.08745 -2.52538,4.54091 0,0.45346 4.46628,9.68259 9.92507,20.50918 20.02591,39.71803 25.20027,60.14251 24.15344,95.33982 -0.56132,18.87361 -2.03008,26.46131 -7.8094,40.34387 -9.58516,23.02458 -34.4649,49.12409 -68.69552,72.06343 -29.67372,19.88558 -75.26558,41.87225 -106.23244,51.23058 -21.22929,6.41559 -30.52771,7.8811 -52.36151,8.25265 -10.83389,0.18436 -22.01962,-0.0812 -24.85719,-0.5901 l 0,0 z m 61.22268,-76.00578 c 47.03145,-11.59255 112.07747,-43.54107 132.45606,-65.05818 19.15281,-20.22284 23.05067,-51.05958 11.99768,-94.91588 -5.14576,-20.41746 -6.61664,-22.25945 -20.02761,-25.08053 -20.0146,-4.2102 -28.07049,-5.04378 -48.66469,-5.03554 -18.79067,0.007 -21.737,0.25234 -31.8198,2.6441 -35.35413,8.38642 -62.89673,24.52004 -90.45467,52.98563 -17.89002,18.47923 -29.60311,37.90271 -34.47519,57.16919 -1.6883,6.6763 -1.96643,10.54138 -1.6811,23.36181 0.33195,14.91558 0.43565,15.55204 3.56852,21.9018 6.40964,12.99122 21.13588,30.80621 28.0881,33.97944 2.31795,1.05799 7.42428,1.29849 21.71828,1.02287 15.89946,-0.30657 20.27041,-0.75042 29.29442,-2.97471 l 0,0 z"
       id="path2988"
       inkscape:connector-curvature="0" />
    <path
       style="fill:#000040"
       d="m 189.52532,411.45572 c -5.42053,-0.15463 -9.67617,-0.52028 -14.23684,-1.22323 -2.72311,-0.41973 -6.35589,-1.08695 -8.64943,-1.58861 -3.5624,-0.77921 -8.86041,-2.48419 -14.82083,-4.76958 l -1.75198,-0.67176 0,-0.42961 0,-0.42962 0.29989,0.13071 c 0.71848,0.31318 3.64738,1.43807 5.06654,1.9459 12.62694,4.51831 23.84707,6.44386 37.53348,6.44133 17.17202,-0.003 36.70394,-3.11619 57.23146,-9.12163 4.68713,-1.37125 10.37886,-3.2151 14.89647,-4.82576 0.88367,-0.31505 1.63093,-0.57282 1.66059,-0.57282 0.0297,0 0.0453,0.14598 0.0348,0.3244 l -0.0191,0.32441 -1.57837,0.55993 c -2.46392,0.87407 -9.34619,3.18023 -12.19429,4.08614 -4.94266,1.57215 -7.75165,2.37761 -11.48116,3.29219 -8.52522,2.09061 -12.01556,2.80484 -18.68782,3.8241 -10.58604,1.61713 -17.08242,2.30545 -24.6856,2.61552 -1.58543,0.0647 -7.36659,0.12368 -8.61787,0.088 l 0,0 z"
       id="path2990"
       inkscape:connector-curvature="0" />
    <path
       style="fill:#000040"
       d="m 188.04166,410.73493 c -6.66535,-0.2924 -11.92675,-0.91663 -17.48827,-2.07489 -6.0256,-1.25491 -12.2621,-3.12694 -18.27744,-5.48641 -2.37706,-0.93238 -2.20971,-0.84542 -2.20971,-1.14824 0,-0.14013 0.0154,-0.25478 0.0341,-0.25478 0.0188,0 0.3384,0.12515 0.71027,0.27812 6.60574,2.7172 16.71822,5.59098 23.21515,6.59731 5.55661,0.86069 12.0582,1.26715 20.26619,1.267 12.69942,-2.6e-4 21.54191,-0.86016 33.80854,-3.28782 11.5878,-2.29331 23.77851,-5.72416 36.51672,-10.27695 1.17698,-0.42066 2.15004,-0.76485 2.16236,-0.76485 0.0123,0 0.0224,0.14939 0.0224,0.33198 l 0,0.33198 -2.00452,0.70846 c -21.24489,7.50858 -42.22628,12.13917 -61.00374,13.46352 -3.85599,0.27196 -5.44077,0.32685 -10.03839,0.34771 -2.48277,0.0113 -5.05392,-0.003 -5.71368,-0.0321 z"
       id="path2992"
       inkscape:connector-curvature="0" />
    <path
       style="fill:#000040"
       d="m 275.71166,393.28038 0.0188,-0.38576 0.94702,-0.37667 c 3.07408,-1.22272 7.31542,-3.04717 12.37437,-5.32293 20.68905,-9.30695 40.01534,-19.46984 56.86936,-29.90522 l 2.13171,-1.31987 0.52494,0.0182 0.52494,0.0182 -2.99893,1.89404 c -8.63334,5.45255 -15.16965,9.34315 -20.8128,12.38837 -13.16419,7.1038 -35.59776,17.74663 -47.86718,22.70892 -0.90899,0.36763 -1.67032,0.66842 -1.69186,0.66842 -0.0215,0 -0.0307,-0.17359 -0.0204,-0.38575 z"
       id="path2994"
       inkscape:connector-curvature="0" />
    <path
       style="fill:#000040"
       d="m 348.14892,355.92014 c 0.033,-0.0301 0.79865,-0.52281 1.70148,-1.09497 9.95811,-6.31099 19.7138,-13.15826 28.5241,-20.02033 l 2.00761,-1.56366 0.48258,0.0184 0.48259,0.0184 -1.48004,1.20529 c -0.81402,0.6629 -1.90619,1.54433 -2.42705,1.95871 -4.97305,3.95647 -13.73328,10.06434 -24.274,16.92449 l -4.00782,2.60837 -0.53471,0 c -0.30539,0 -0.50899,-0.0234 -0.47474,-0.0547 z"
       id="path3002"
       inkscape:connector-curvature="0" />
    <path
       style="fill:#000040"
       d="m 275.71151,392.49076 0.0189,-0.35526 0.31568,-0.12235 c 0.64996,-0.25192 3.64712,-1.47463 4.95606,-2.02185 14.6773,-6.13613 29.78029,-13.49279 45.96194,-22.38805 19.01965,-10.45535 35.1945,-20.86268 49.0871,-31.58394 1.11117,-0.85752 2.36123,-1.83215 2.77792,-2.16584 0.74674,-0.59801 0.7625,-0.60671 1.09804,-0.6069 l 0.34042,-1.9e-4 -0.78237,0.61802 c -0.4303,0.33991 -1.57785,1.23031 -2.55013,1.97867 -19.44701,14.96835 -41.58665,28.64674 -66.79633,41.26833 -12.08038,6.04822 -25.57311,12.21879 -34.14316,15.61455 l -0.30305,0.12008 0.0189,-0.35527 0,0 z"
       id="path3004"
       inkscape:connector-curvature="0" />
    <path
       style="fill:#552200"
       d=""
       id="path3006"
       inkscape:connector-curvature="0" />
    <path
       style="fill:#000040"
       d="m 266.84862,395.85833 0.0277,-0.32409 1.51785,-0.55761 c 1.25286,-0.46026 4.7897,-1.82323 6.80804,-2.62358 l 0.46875,-0.18587 0,0.34173 0,0.34174 -1.54018,0.60868 c -1.96474,0.77647 -7.13689,2.7231 -7.2352,2.7231 -0.0411,0 -0.0622,-0.14585 -0.047,-0.3241 z"
       id="path3008"
       inkscape:connector-curvature="0" />
    <path
       style="fill:#000040"
       d="m 266.83168,396.60612 0,-0.2906 2.57086,-0.95911 c 1.41397,-0.52751 3.38569,-1.28067 4.38161,-1.67369 0.99592,-0.39302 1.83018,-0.71458 1.85392,-0.71458 0.0237,0 0.0308,0.16393 0.0157,0.36429 l -0.0274,0.36429 -1.25,0.48674 c -1.73918,0.67721 -7.32705,2.71325 -7.44646,2.71325 -0.054,0 -0.0982,-0.13076 -0.0982,-0.29059 z"
       id="path3010"
       inkscape:connector-curvature="0" />
    <path
       style="fill:#000040"
       d="m 196.65311,376.50876 0,-33.36205 82.54465,0 82.54464,0 -0.004,1.58482 -0.004,1.58483 -1.44676,0.97808 c -14.38011,9.72159 -31.49741,19.63918 -50.59859,29.31629 -27.93568,14.15287 -54.71088,24.19019 -77.72322,29.13641 -12.34328,2.65303 -21.49915,3.78732 -32.79018,4.06226 l -2.52232,0.0614 0,-33.36205 z"
       id="path3012"
       inkscape:connector-curvature="0" />
    <path
       style="fill:#000040"
       d="m 266.92097,395.83267 c 0,-0.22921 0.0509,-0.27929 0.42411,-0.41725 0.23326,-0.0862 2.18739,-0.83285 4.34252,-1.65917 2.15513,-0.82631 3.93558,-1.50239 3.95655,-1.50239 0.021,0 0.0255,0.12586 0.0102,0.2797 -0.0272,0.27231 -0.0634,0.29365 -1.36727,0.80757 -1.60445,0.63237 -7.23671,2.75201 -7.31258,2.75201 -0.0294,0 -0.0535,-0.11721 -0.0535,-0.26047 z"
       id="path3014"
       inkscape:connector-curvature="0" />
    <path
       style="fill:#000040"
       d="m 269.421,396.05105 0.002,-0.0285 0.28181,-0.102 c 1.29483,-0.46867 3.35864,-1.23279 4.27734,-1.58368 0.47662,-0.18205 1.63913,-0.63401 1.64412,-0.63921 0.009,-0.009 0.0348,-0.41589 0.035,-0.54772 1.9e-4,-0.15477 -0.004,-0.18262 -0.0303,-0.17992 -0.0303,0.003 -0.33956,0.12114 -1.24981,0.4768 -1.84996,0.72282 -2.83995,1.10302 -4.37082,1.67859 l -0.59012,0.22186 0,-0.0183 c 0,-0.0122 0.003,-0.0195 0.01,-0.0221 0.005,-0.002 0.21944,-0.0825 0.47572,-0.17866 2.47275,-0.92775 5.10507,-1.9576 7.53059,-2.94622 0.3093,-0.12607 0.32498,-0.1318 0.3559,-0.13025 l 0.0323,0.002 -0.31962,0.12939 c -0.26301,0.10647 -1.7383,0.69575 -1.76812,0.70625 -0.007,0.003 -0.0103,0.0339 -0.0192,0.21709 -0.0152,0.31294 -0.0122,0.53885 0.008,0.55863 0.009,0.009 0.19242,-0.0613 1.07255,-0.4134 0.71613,-0.28645 1.5526,-0.62766 2.34966,-0.95846 0.32108,-0.13326 0.58538,-0.24229 0.58733,-0.24229 0.002,0 0.004,0.008 0.004,0.0184 l 0,0.0184 -0.11021,0.0463 c -0.75648,0.31796 -2.55959,1.05266 -3.40541,1.38757 -1.691,0.66958 -3.74455,1.44637 -5.97099,2.25863 -0.76055,0.27746 -0.82222,0.2998 -0.82758,0.29977 -0.002,-10e-6 -0.004,-0.0129 -0.003,-0.0286 l 0,0 z"
       id="path3016"
       inkscape:connector-curvature="0" />
    <path
       style="fill:#000040"
       d="m 269.42548,396.05014 c 0,-0.0188 0.002,-0.0261 0.01,-0.029 0.005,-0.002 0.0675,-0.0247 0.13811,-0.0502 0.98839,-0.35693 2.95611,-1.08347 3.98804,-1.47251 0.44905,-0.16929 1.34075,-0.51303 1.79298,-0.69118 l 0.2732,-0.10762 0.004,-0.0195 c 0.006,-0.0319 0.0211,-0.24675 0.0236,-0.34598 0.001,-0.0506 0.001,-0.0795 1.9e-4,-0.0642 -0.001,0.0153 -0.009,0.11705 -0.0166,0.226 -0.008,0.10896 -0.0149,0.1985 -0.0154,0.19897 -0.003,0.003 -1.30476,0.50795 -1.61914,0.62808 -0.91321,0.34897 -2.94555,1.1016 -4.29687,1.59126 l -0.2846,0.10312 -0.001,-0.32986 c -7.9e-4,-0.18143 4.6e-4,-0.33174 0.003,-0.33402 0.002,-0.002 0.27795,-0.10701 0.61249,-0.23273 0.72229,-0.27144 1.47984,-0.55927 2.23772,-0.85021 0.57362,-0.2202 0.92358,-0.35614 2.12333,-0.82479 0.94027,-0.36729 1.2291,-0.47716 1.2417,-0.47232 0.011,0.004 0.0154,0.0384 0.0194,0.14862 l 0.004,0.10324 5e-4,-0.0893 c 5.9e-4,-0.10424 -0.004,-0.1502 -0.0164,-0.16258 -0.008,-0.008 -0.0121,-0.008 -0.0471,0.004 -0.0987,0.0324 -0.38114,0.14128 -1.78767,0.68903 -1.37187,0.53424 -2.23012,0.86365 -3.4096,1.30865 -1.06314,0.40111 -0.97347,0.36843 -0.97565,0.35561 -0.001,-0.006 0.001,-0.0141 0.006,-0.0178 0.004,-0.004 0.0753,-0.0322 0.15813,-0.0632 2.65731,-0.99652 5.01656,-1.91677 7.60538,-2.96655 0.56519,-0.22919 0.55949,-0.22703 0.59967,-0.2274 0.20807,-0.002 1.91624,-0.004 1.9145,-0.003 -0.005,0.005 -1.16149,0.48307 -1.71553,0.70935 -0.8246,0.33677 -2.00282,0.80785 -2.18391,0.87319 -0.0327,0.0118 -0.0637,0.0232 -0.0691,0.0253 -0.0136,0.005 -0.0201,-0.0145 -0.0259,-0.08 l -0.005,-0.0539 -5.3e-4,0.0419 c -5.8e-4,0.0466 0.006,0.087 0.0149,0.0962 0.009,0.009 0.11013,-0.0286 0.61468,-0.22836 0.6707,-0.2656 1.50714,-0.60477 2.49163,-1.01034 0.488,-0.20104 0.89167,-0.36679 0.89704,-0.36833 0.008,-0.002 0.01,5.6e-4 0.01,0.0121 0,0.0182 0.0452,-0.002 -0.44922,0.20279 -1.11024,0.46036 -2.58356,1.05744 -3.42076,1.38629 -1.36148,0.53479 -3.10586,1.19553 -4.84209,1.83409 -0.75285,0.2769 -1.56551,0.5731 -1.59066,0.57978 -0.008,0.002 -0.01,-0.001 -0.01,-0.0226 z m 6.28177,-2.5695 c -0.001,-0.005 -0.003,-0.002 -0.003,0.007 -1.1e-4,0.009 0.001,0.0137 0.003,0.01 0.002,-0.004 0.002,-0.0113 2.1e-4,-0.0167 l 0,0 z m 0.016,-0.38008 c 0.005,-0.10233 0.008,-0.18716 0.006,-0.1885 -0.005,-0.005 -0.021,0.30843 -0.0195,0.39409 7e-4,0.0414 0.001,0.0471 0.003,0.0195 8.6e-4,-0.0215 0.006,-0.12279 0.0105,-0.22512 z m 0.55586,-0.42147 c 0.45897,-0.1828 0.97764,-0.39076 1.41812,-0.56859 0.0608,-0.0245 0.10939,-0.0457 0.1081,-0.0469 -0.002,-0.002 -2.05096,0.81438 -2.06843,0.82446 -0.032,0.0185 0.0668,-0.0196 0.54221,-0.20894 l 0,0 z"
       id="path3018"
       inkscape:connector-curvature="0" />
    <path
       style="fill:#000040"
       d="m 269.41997,395.28359 8e-5,-0.0215 0.11851,-0.044 c 0.21915,-0.0814 1.48073,-0.55837 2.03815,-0.77061 1.30919,-0.49848 2.0656,-0.79186 3.33845,-1.29484 l 0.76032,-0.30046 0,-0.34219 c 0,-0.27005 -0.001,-0.3422 -0.007,-0.3422 -0.004,1e-5 -0.0961,0.0354 -0.20507,0.0786 -1.42213,0.56415 -4.60371,1.79785 -5.94587,2.3056 l -0.0949,0.0359 -0.002,-0.0136 c -0.001,-0.007 -6.4e-4,-0.0147 8e-4,-0.0162 0.001,-0.001 0.37893,-0.14526 0.83887,-0.3196 1.58899,-0.6023 3.55248,-1.36437 5.0041,-1.94218 0.54787,-0.21809 0.62169,-0.2461 0.64453,-0.24462 0.0249,0.002 0.0223,0.003 -0.0747,0.0401 -0.0553,0.0212 -0.10203,0.04 -0.10396,0.0419 -0.004,0.004 -0.0415,0.70803 -0.0375,0.71203 0.003,0.003 0.92096,-0.36219 1.58282,-0.63012 0.36855,-0.14919 0.41168,-0.1654 0.43605,-0.16389 0.0256,0.002 0.0111,0.008 -0.26671,0.12119 -2.54139,1.03401 -4.98425,1.98985 -7.51752,2.94148 -0.27162,0.10203 -0.497,0.1867 -0.50083,0.18814 -0.005,0.002 -0.007,-0.004 -0.007,-0.0189 z"
       id="path3020"
       inkscape:connector-curvature="0" />
    <path
       style="fill:#000040"
       d="m 270.88634,395.07367 0,-0.27444 0.44043,-0.16745 c 0.93807,-0.35665 1.85376,-0.71043 2.80371,-1.08323 0.66397,-0.26057 1.19556,-0.46595 1.4043,-0.54256 0.10101,-0.0371 0.12707,-0.0493 0.0462,-0.0217 -0.10587,0.0362 -0.48125,0.18115 -1.95832,0.75632 -0.8684,0.33815 -1.96114,0.75866 -2.65235,1.02067 l -0.082,0.0311 -0.001,-0.0155 c -6.7e-4,-0.009 -6.7e-4,-0.016 0,-0.0167 6.7e-4,-6.2e-4 0.1981,-0.0762 0.43872,-0.16791 0.70392,-0.26836 1.85855,-0.71442 2.42383,-0.93638 1.28915,-0.5062 2.19583,-0.86759 3.32171,-1.32401 0.74171,-0.30068 0.68031,-0.27733 0.72712,-0.27646 l 0.0312,5.8e-4 0.13476,-0.0555 c 0.0741,-0.0305 0.13697,-0.0564 0.13965,-0.0575 0.004,-0.002 0.005,0.0771 0.005,0.3862 l 0,0.38823 -0.0107,0.004 c -0.006,0.002 -0.17158,0.0696 -0.36816,0.14955 -0.77139,0.31373 -1.6961,0.68245 -1.9375,0.77255 -0.0312,0.0116 -0.0514,0.02 -0.0449,0.0187 0.0581,-0.0122 0.91412,-0.35118 1.94531,-0.77039 0.18262,-0.0742 0.35049,-0.14247 0.37305,-0.15163 l 0.041,-0.0166 0.001,0.0158 c 6.7e-4,0.009 -2e-4,0.0172 -0.002,0.0188 -0.0105,0.01 -1.64163,0.66671 -2.24537,0.90415 -1.18934,0.46774 -2.77854,1.0724 -4.19523,1.59619 l -0.2421,0.0895 -0.0722,-0.001 -0.0722,-0.001 0.33775,-0.12447 c 0.7158,-0.26378 1.68047,-0.62392 2.27525,-0.84942 0.417,-0.1581 1.72849,-0.66764 1.73529,-0.6742 0.005,-0.005 0.0232,-0.23753 0.0258,-0.33629 8.9e-4,-0.0344 8.7e-4,-0.0537 -4e-5,-0.043 -9e-4,0.0107 -0.008,0.0994 -0.015,0.19699 -0.007,0.0976 -0.0148,0.1786 -0.0164,0.18 -0.002,0.001 -0.0285,0.0124 -0.0596,0.0244 -0.0312,0.012 -0.29219,0.11351 -0.58008,0.22561 -0.90507,0.35241 -1.1228,0.43572 -1.82225,0.69728 -0.61853,0.2313 -0.65615,0.24528 -1.28907,0.47892 -0.32549,0.12015 -0.59583,0.22019 -0.60077,0.2223 -0.005,0.002 -0.082,0.004 -0.19629,0.004 l -0.18731,0 0,-0.27445 z m 4.83763,-1.42574 c -0.003,-0.009 -0.007,-0.0324 -0.009,-0.0518 l -0.004,-0.0352 0.002,0.0371 c 0.002,0.0384 0.007,0.0664 0.0135,0.0664 0.002,0 9.5e-4,-0.007 -0.002,-0.0166 l 0,0 z m -0.0147,-0.16407 c -0.001,-0.003 -0.002,-4.9e-4 -0.002,0.005 0,0.005 8.8e-4,0.008 0.002,0.005 0.001,-0.003 0.001,-0.007 0,-0.01 z m 0.0134,-0.38893 c 0.005,-0.0952 0.007,-0.17417 0.006,-0.17546 -0.001,-0.001 -0.002,0.004 -0.002,0.011 -4e-5,0.007 -0.003,0.0538 -0.006,0.10319 -0.003,0.0494 -0.006,0.13203 -0.007,0.18359 -0.002,0.11366 -0.001,0.0999 0.009,-0.12233 l 0,0 z m -0.0603,-0.002 c -0.003,-0.0868 -0.006,-0.10926 -0.0162,-0.11969 -0.006,-0.006 -0.006,-0.005 -5e-4,0.008 0.008,0.0188 0.0141,0.0829 0.0141,0.1446 0,0.0277 0.001,0.0504 0.003,0.0504 0.001,0 0.001,-0.0374 4e-5,-0.083 l 0,0 z m 0.3035,-0.29057 c 0.65403,-0.2591 1.82042,-0.72776 1.81779,-0.73039 -7.3e-4,-7.3e-4 -0.31059,0.12232 -0.68858,0.27344 -0.378,0.15113 -0.83844,0.33498 -1.02321,0.40856 -0.18476,0.0736 -0.33666,0.13448 -0.33756,0.1353 -0.007,0.007 0.0372,-0.01 0.23156,-0.0869 l 0,0 z"
       id="path3022"
       inkscape:connector-curvature="0" />
    <path
       style="fill:#000040"
       d="m 270.88634,395.07349 0,-0.27463 0.0908,-0.0344 c 1.11788,-0.42409 2.05239,-0.78445 3.13379,-1.20844 0.21914,-0.0859 0.43142,-0.16898 0.47173,-0.18458 0.0403,-0.0156 0.0726,-0.029 0.0718,-0.0299 -8.1e-4,-8.2e-4 -0.34317,0.13146 -0.76079,0.29395 -0.77578,0.30185 -0.83361,0.32427 -1.47025,0.57003 -0.32413,0.12512 -1.32618,0.5084 -1.47852,0.56553 l -0.0566,0.0212 -0.001,-0.0155 c -6.7e-4,-0.009 -6.7e-4,-0.016 0,-0.0166 6.7e-4,-6.4e-4 0.17261,-0.0666 0.38208,-0.14645 1.97281,-0.75252 3.87292,-1.49994 5.82422,-2.29099 0.70415,-0.28546 0.65707,-0.2676 0.70533,-0.2676 l 0.032,0 0.13796,-0.0566 c 0.0759,-0.0312 0.13849,-0.0566 0.13915,-0.0566 6.6e-4,0 0.001,0.17455 0.001,0.38788 l 0,0.38788 -0.41699,0.16936 c -0.70313,0.28558 -1.6303,0.65526 -1.87693,0.74837 -0.0274,0.0103 -0.0491,0.0194 -0.0483,0.0202 0.007,0.007 1.01256,-0.39187 2.02391,-0.80355 0.16973,-0.0691 0.3109,-0.12658 0.31372,-0.12777 0.004,-0.002 0.005,0.002 0.004,0.0166 l -0.001,0.0188 -0.0273,0.0113 c -0.0441,0.0182 -0.56171,0.22834 -0.81836,0.33226 -1.63557,0.66225 -3.41364,1.34749 -5.54255,2.13601 l -0.2945,0.10908 -0.0727,-0.001 -0.0727,-0.001 0.29492,-0.10883 c 0.93532,-0.34513 2.09788,-0.77986 2.5,-0.93485 0.69194,-0.2667 1.32226,-0.51142 1.50256,-0.58336 l 0.0514,-0.0205 0.002,-0.0161 c 0.006,-0.0437 0.0186,-0.20977 0.0235,-0.31685 0.003,-0.0778 -0.002,-0.0238 -0.0152,0.15003 -0.007,0.0976 -0.0149,0.1786 -0.0166,0.1801 -0.002,0.001 -0.0215,0.01 -0.0441,0.0185 -0.0226,0.009 -0.29941,0.11634 -0.61523,0.23927 -1.10635,0.43065 -1.58343,0.61105 -3.04848,1.15275 l -0.65394,0.24179 -0.18688,0 -0.18687,0 0,-0.27463 z m 4.83773,-1.42361 c -0.002,-0.006 -0.004,-0.0178 -0.006,-0.0264 -0.002,-0.0136 -0.003,-0.0141 -0.003,-0.004 -5e-4,0.0127 0.006,0.041 0.01,0.041 0.001,0 8.6e-4,-0.005 -7.7e-4,-0.0107 l 0,0 z m -0.0108,-0.0663 c -9.9e-4,-0.004 -0.002,-0.002 -0.002,0.005 -8e-5,0.006 7.3e-4,0.01 0.002,0.007 0.001,-0.003 0.001,-0.008 1.4e-4,-0.0117 l 0,0 z m -1.01342,-0.25769 c 0.0145,-0.006 0.0257,-0.0109 0.0249,-0.0117 -0.002,-0.002 -0.0619,0.0217 -0.065,0.0252 -0.002,0.003 0.005,3.3e-4 0.0401,-0.0135 z m 0.0703,-0.0273 c 0.0145,-0.006 0.0257,-0.0109 0.0249,-0.0117 -0.002,-0.002 -0.0619,0.0217 -0.065,0.0252 -0.002,0.003 0.005,3.3e-4 0.0401,-0.0134 z m 0.0703,-0.0273 c 0.0145,-0.006 0.0257,-0.0109 0.0249,-0.0117 -0.002,-0.002 -0.0619,0.0217 -0.065,0.0252 -0.002,0.003 0.005,3.3e-4 0.0401,-0.0134 l 0,0 z m 0.87285,-0.0295 c -9.3e-4,-0.005 -0.002,-8.8e-4 -0.002,0.009 0,0.01 7.6e-4,0.0136 0.002,0.009 9.3e-4,-0.005 9.3e-4,-0.0127 0,-0.0176 z m -0.80253,0.002 c 0.0145,-0.006 0.0257,-0.0109 0.0249,-0.0117 -0.002,-0.002 -0.0619,0.0217 -0.065,0.0252 -0.002,0.003 0.005,3.3e-4 0.0401,-0.0135 z m 0.0703,-0.0273 c 0.0145,-0.006 0.0257,-0.0109 0.0249,-0.0117 -0.002,-0.002 -0.0619,0.0217 -0.065,0.0252 -0.002,0.003 0.005,3.3e-4 0.0401,-0.0134 z m 0.74409,-0.21212 -2.2e-4,-0.0332 -0.003,0.041 c -0.002,0.0226 -0.004,0.0779 -0.005,0.12305 l -0.002,0.082 0.005,-0.0898 c 0.003,-0.0494 0.005,-0.10479 0.005,-0.12305 l 0,0 z m -0.48142,0.11132 c 0.12246,-0.0468 0.25605,-0.0972 0.29687,-0.1122 0.0408,-0.0149 0.0751,-0.0281 0.0762,-0.0293 0.006,-0.006 -0.12222,0.0407 -0.37696,0.13847 -0.18689,0.0718 -0.25287,0.0981 -0.22461,0.0897 0.003,-9.6e-4 0.10606,-0.04 0.22852,-0.0868 z m 0.41892,-0.0242 c -7.6e-4,-0.0146 -0.001,-0.004 -0.001,0.0242 0,0.0279 6.1e-4,0.0399 0.001,0.0265 7.6e-4,-0.0133 7.7e-4,-0.0362 0,-0.0508 l 2e-5,0 z m -0.007,-0.0932 c -0.002,-0.0116 -0.006,-0.0223 -0.009,-0.0238 -0.003,-0.002 -0.003,-2e-4 -0.001,0.005 0.005,0.0119 0.0101,0.0441 0.0109,0.0637 l 7.2e-4,0.018 0.001,-0.0208 c 7.9e-4,-0.0114 -5.3e-4,-0.0303 -0.003,-0.0419 z m 0.0732,-0.0612 c -8.7e-4,-0.007 -0.002,-0.002 -0.002,0.0107 -4e-5,0.0129 6.9e-4,0.0186 0.002,0.0128 8.9e-4,-0.006 9.1e-4,-0.0164 4e-5,-0.0234 l 0,0 z m 0.0812,-0.0733 c 0.1351,-0.0527 1.13931,-0.45325 1.45117,-0.57886 0.28837,-0.11615 0.36615,-0.1483 0.33398,-0.13803 -0.0173,0.006 -1.84807,0.73737 -1.85351,0.74093 -0.005,0.003 -0.005,0.004 0,0.002 0.003,-9.7e-4 0.034,-0.0127 0.0684,-0.0261 l 0,0 z m 1.80664,-0.7227 c 0.003,-0.002 0.004,-0.004 0.002,-0.004 -0.002,0 -0.007,0.002 -0.01,0.004 -0.003,0.002 -0.004,0.004 -0.002,0.004 0.002,0 0.007,-0.002 0.01,-0.004 z m 0.0195,-0.008 c 0.003,-0.002 0.004,-0.004 0.002,-0.004 -0.002,0 -0.007,0.002 -0.01,0.004 -0.003,0.002 -0.004,0.004 -0.002,0.004 0.002,0 0.007,-0.002 0.01,-0.004 z m 0.0195,-0.008 c 0.003,-0.002 0.004,-0.004 0.002,-0.004 -0.002,0 -0.007,0.002 -0.01,0.004 -0.003,0.002 -0.004,0.004 -0.002,0.004 0.002,0 0.007,-0.002 0.01,-0.004 z m 0.0195,-0.008 c 0.003,-0.002 0.004,-0.004 0.002,-0.004 -0.002,0 -0.007,0.002 -0.01,0.004 -0.003,0.002 -0.004,0.004 -0.002,0.004 0.002,0 0.007,-0.002 0.01,-0.004 z m 0.0195,-0.008 c 0.003,-0.002 0.004,-0.004 0.002,-0.004 -0.002,0 -0.007,0.002 -0.01,0.004 -0.003,0.002 -0.004,0.004 -0.002,0.004 0.002,0 0.007,-0.002 0.01,-0.004 z"
       id="path3024"
       inkscape:connector-curvature="0" />
    <path
       style="fill:#000040"
       d="m 270.88634,395.07334 0,-0.27478 0.11621,-0.0441 c 0.72471,-0.27483 1.67931,-0.64122 2.27246,-0.8722 0.62241,-0.24238 1.06055,-0.41438 1.05913,-0.41579 -7.5e-4,-7.6e-4 -0.28683,0.10957 -0.63572,0.24517 -0.59004,0.22932 -1.33346,0.51707 -1.607,0.62201 -0.31346,0.12026 -1.16189,0.44394 -1.19043,0.45416 l -0.0146,0.005 0,-0.0168 0,-0.0168 0.12597,-0.048 c 2.15476,-0.8214 4.0375,-1.56089 6.03223,-2.36927 0.75462,-0.30582 0.70548,-0.28711 0.75389,-0.28711 l 0.0317,0 0.13796,-0.0566 c 0.0759,-0.0312 0.13862,-0.0566 0.13943,-0.0566 8e-4,0 0.001,0.17459 0.001,0.38797 l 0,0.38798 -0.13769,0.056 c -0.91163,0.37075 -1.98022,0.79784 -2.15048,0.85952 -0.0135,0.005 -0.0238,0.01 -0.023,0.0104 0.007,0.007 0.94657,-0.36676 1.9837,-0.78813 0.1382,-0.0562 0.26774,-0.10893 0.28786,-0.11729 0.0201,-0.008 0.0374,-0.0152 0.0383,-0.0152 9.4e-4,0 0.001,0.008 5.2e-4,0.0184 l -0.001,0.0184 -0.0605,0.0248 c -0.50999,0.20907 -1.69479,0.68538 -2.14453,0.86214 -0.54737,0.21512 -1.34714,0.52463 -1.85742,0.71882 -0.85246,0.3244 -1.61304,0.61008 -2.3723,0.89106 l -0.24731,0.0915 -0.073,-0.001 -0.073,-0.001 0.0566,-0.021 c 0.0312,-0.0116 0.16826,-0.0622 0.30468,-0.1126 0.47157,-0.17411 1.24943,-0.46352 1.61719,-0.60167 0.20303,-0.0763 0.37407,-0.14044 0.38008,-0.14258 0.006,-0.002 0.0103,-0.005 0.009,-0.005 -8.3e-4,-8.3e-4 -0.11913,0.0426 -0.2629,0.0966 -0.58553,0.21969 -0.93924,0.35113 -1.92673,0.71602 l -0.19659,0.0726 -0.1872,0 -0.18719,0 0,-0.27478 z m 2.78906,-0.62041 c 0.004,-0.003 0.003,-0.003 -0.004,-0.001 -0.005,0.001 -0.0124,0.004 -0.0156,0.006 -0.004,0.003 -0.003,0.003 0.004,0.001 0.005,-0.001 0.0124,-0.004 0.0156,-0.006 z m 0.19004,-0.0712 c 0.30936,-0.11735 1.42892,-0.55092 1.65078,-0.63929 0.0231,-0.009 0.0414,-0.0173 0.0407,-0.018 -7.2e-4,-7.2e-4 -0.2411,0.092 -0.53418,0.20604 -0.64714,0.2518 -0.92186,0.35799 -1.1577,0.44749 -0.16301,0.0619 -0.1879,0.0717 -0.1809,0.0717 0.001,0 0.0828,-0.0306 0.18131,-0.0679 z m 1.73635,-0.67291 c 0.0253,-0.01 0.026,-0.0105 0.0283,-0.0262 0.007,-0.046 0.0222,-0.26366 0.0214,-0.29708 -2.6e-4,-0.0109 -0.006,0.0527 -0.0133,0.14144 -0.007,0.0887 -0.0137,0.16341 -0.0147,0.16602 -0.001,0.003 -0.0152,0.01 -0.0316,0.016 -0.0164,0.006 -0.0297,0.0121 -0.0297,0.0131 0,0.002 0.002,0.001 0.0397,-0.0133 z m 0.12069,-0.0621 c -0.002,-0.006 -0.004,-0.009 -0.004,-0.005 -3.8e-4,0.007 0.004,0.0199 0.006,0.0179 7.4e-4,-7.4e-4 -2e-4,-0.007 -0.002,-0.0129 z m -0.005,-0.0281 c -9.9e-4,-0.004 -0.002,-0.002 -0.002,0.005 -7e-5,0.006 7.4e-4,0.01 0.002,0.007 0.001,-0.003 0.001,-0.008 1.4e-4,-0.0117 l 0,0 z m -1.36599,-0.1573 c 0.003,-0.002 0.004,-0.004 0.002,-0.004 -0.002,0 -0.007,0.002 -0.01,0.004 -0.003,0.002 -0.004,0.004 -0.002,0.004 0.002,0 0.007,-0.002 0.01,-0.004 z m 0.0195,-0.008 c 0.003,-0.002 0.004,-0.004 0.002,-0.004 -0.002,0 -0.007,0.002 -0.01,0.004 -0.003,0.002 -0.004,0.004 -0.002,0.004 0.002,0 0.007,-0.002 0.01,-0.004 z m 0.0312,-0.0124 c 0.004,-0.003 0.003,-0.003 -0.004,-0.001 -0.005,0.001 -0.0124,0.004 -0.0156,0.006 -0.004,0.003 -0.003,0.003 0.004,10e-4 0.005,-0.001 0.0124,-0.004 0.0156,-0.006 z m 0.0195,-0.007 c 0.003,-0.002 0.004,-0.004 0.002,-0.004 -0.002,0 -0.007,0.002 -0.01,0.004 -0.003,0.002 -0.004,0.004 -0.002,0.004 0.002,0 0.007,-0.002 0.01,-0.004 z m 0.0195,-0.008 c 0.003,-0.002 0.004,-0.004 0.002,-0.004 -0.002,0 -0.007,0.002 -0.01,0.004 -0.003,0.002 -0.004,0.004 -0.002,0.004 0.002,0 0.007,-0.002 0.01,-0.004 z m 0.0703,-0.0273 c 0.003,-0.002 0.004,-0.004 0.002,-0.004 -0.002,0 -0.007,0.002 -0.01,0.004 -0.003,0.002 -0.004,0.004 -0.002,0.004 0.002,0 0.007,-0.002 0.01,-0.004 z m 0.0703,-0.0273 c 0.003,-0.002 0.004,-0.004 0.002,-0.004 -0.002,0 -0.007,0.002 -0.01,0.004 -0.003,0.002 -0.004,0.004 -0.002,0.004 0.002,0 0.007,-0.002 0.01,-0.004 z m 0.0898,-0.0352 c 0.003,-0.002 0.004,-0.004 0.002,-0.004 -0.002,0 -0.007,0.002 -0.01,0.004 -0.003,0.002 -0.004,0.004 -0.002,0.004 0.002,0 0.007,-0.002 0.01,-0.004 z m 0.0312,-0.0124 c 0.004,-0.003 0.003,-0.003 -0.004,-0.001 -0.005,0.001 -0.0124,0.004 -0.0156,0.006 -0.004,0.003 -0.003,0.003 0.004,0.001 0.005,-0.001 0.0124,-0.004 0.0156,-0.006 z m 0.0703,-0.0273 c 0.004,-0.003 0.003,-0.003 -0.004,-0.001 -0.005,0.001 -0.0124,0.004 -0.0156,0.006 -0.004,0.003 -0.003,0.003 0.004,0.001 0.005,-0.001 0.0124,-0.004 0.0156,-0.006 z m 0.0703,-0.0267 c 0.003,-0.002 0.004,-0.004 0.002,-0.004 -0.002,0 -0.007,0.002 -0.01,0.004 -0.003,0.002 -0.004,0.004 -0.002,0.004 0.002,0 0.007,-0.002 0.01,-0.004 z m 0.0703,-0.028 c 0.004,-0.003 0.003,-0.003 -0.004,-0.001 -0.005,0.001 -0.0124,0.004 -0.0156,0.006 -0.004,0.003 -0.003,0.003 0.004,0.001 0.005,-0.001 0.0124,-0.004 0.0156,-0.006 z m 0.0703,-0.0273 c 0.004,-0.003 0.003,-0.003 -0.004,-0.001 -0.005,0.001 -0.0124,0.004 -0.0156,0.006 -0.004,0.003 -0.003,0.003 0.004,0.001 0.005,-0.001 0.0124,-0.004 0.0156,-0.006 z m 0.73333,-0.0667 c -8.2e-4,-0.009 -0.001,-0.002 -0.001,0.0166 0,0.0183 6.7e-4,0.0257 0.001,0.0166 8.3e-4,-0.009 8.3e-4,-0.0241 0,-0.0332 z m -0.66301,0.04 c 0.003,-0.002 0.004,-0.004 0.002,-0.004 -0.002,0 -0.007,0.002 -0.01,0.004 -0.003,0.002 -0.004,0.004 -0.002,0.004 0.002,0 0.007,-0.002 0.01,-0.004 z m 0.0195,-0.008 c 0.003,-0.002 0.004,-0.004 0.002,-0.004 -0.002,0 -0.007,0.002 -0.01,0.004 -0.003,0.002 -0.004,0.004 -0.002,0.004 0.002,0 0.007,-0.002 0.01,-0.004 z m 0.0312,-0.0124 c 0.004,-0.003 0.003,-0.003 -0.004,-0.001 -0.005,0.001 -0.0124,0.004 -0.0156,0.006 -0.004,0.003 -0.003,0.003 0.004,0.001 0.005,-0.001 0.0124,-0.004 0.0156,-0.006 z m 0.0195,-0.007 c 0.003,-0.002 0.004,-0.004 0.002,-0.004 -0.002,0 -0.007,0.002 -0.01,0.004 -0.003,0.002 -0.004,0.004 -0.002,0.004 0.002,0 0.007,-0.002 0.01,-0.004 z m 0.19392,-0.0736 c 0.10067,-0.0383 0.1967,-0.0746 0.2134,-0.0806 0.0167,-0.006 0.0296,-0.0117 0.0288,-0.0126 -0.002,-0.002 -0.4226,0.1559 -0.4278,0.1611 -0.004,0.004 0.011,-0.001 0.18564,-0.0679 l 0,0 z m 0.40271,-0.0211 c -7.9e-4,-0.0113 -0.001,-0.002 -0.001,0.0205 0,0.0226 6.5e-4,0.0318 0.001,0.0205 7.9e-4,-0.0113 7.9e-4,-0.0297 0,-0.041 z m -0.0628,-0.0441 c -0.001,-0.0162 -0.005,-0.0342 -0.009,-0.04 -0.003,-0.006 -0.005,-0.007 -0.004,-0.003 0.005,0.0144 0.01,0.0459 0.01,0.0591 0,0.007 0.001,0.0131 0.003,0.0131 0.001,0 0.001,-0.0133 3e-5,-0.0295 l 0,0 z m 0.0667,-0.0242 c -8.4e-4,-0.008 -0.002,-0.001 -0.002,0.0147 0,0.0161 6.9e-4,0.0227 0.002,0.0147 8.4e-4,-0.008 8.4e-4,-0.0212 0,-0.0293 z m -0.13566,-0.0134 c 0.004,-0.003 0.003,-0.003 -0.004,-0.001 -0.005,0.001 -0.0124,0.004 -0.0156,0.006 -0.004,0.003 -0.003,0.003 0.004,0.001 0.005,-0.001 0.0124,-0.004 0.0156,-0.006 z m 0.13931,-0.0433 c -0.001,-0.003 -0.002,-4.8e-4 -0.002,0.005 0,0.005 8.9e-4,0.008 0.002,0.005 0.001,-0.003 0.001,-0.007 0,-0.01 z m 0.0404,-0.0615 c 0.003,-0.002 0.004,-0.004 0.002,-0.004 -0.002,0 -0.007,0.002 -0.01,0.004 -0.003,0.002 -0.004,0.004 -0.002,0.004 0.002,0 0.007,-0.002 0.01,-0.004 z m 0.4541,-0.17998 c 0.85643,-0.34086 1.34203,-0.53643 1.2959,-0.52189 -0.0115,0.004 -1.74021,0.69469 -1.74183,0.69631 -9.1e-4,9.1e-4 -4.9e-4,0.002 9.4e-4,0.002 0.001,0 0.20168,-0.0792 0.44499,-0.17607 z m 1.31543,-0.52705 c 0.003,-0.002 0.004,-0.004 0.002,-0.004 -0.002,0 -0.007,0.002 -0.01,0.004 -0.003,0.002 -0.004,0.004 -0.002,0.004 0.002,0 0.007,-0.002 0.01,-0.004 z m 0.0195,-0.008 c 0.003,-0.002 0.004,-0.004 0.002,-0.004 -0.002,0 -0.007,0.002 -0.01,0.004 -0.003,0.002 -0.004,0.004 -0.002,0.004 0.002,0 0.007,-0.002 0.01,-0.004 z m 0.0195,-0.008 c 0.003,-0.002 0.004,-0.004 0.002,-0.004 -0.002,0 -0.007,0.002 -0.01,0.004 -0.003,0.002 -0.004,0.004 -0.002,0.004 0.002,0 0.007,-0.002 0.01,-0.004 z m 0.0195,-0.008 c 0.003,-0.002 0.004,-0.004 0.002,-0.004 -0.002,0 -0.007,0.002 -0.01,0.004 -0.003,0.002 -0.004,0.004 -0.002,0.004 0.002,0 0.007,-0.002 0.01,-0.004 z m 0.0195,-0.008 c 0.003,-0.002 0.004,-0.004 0.002,-0.004 -0.002,0 -0.007,0.002 -0.01,0.004 -0.003,0.002 -0.004,0.004 -0.002,0.004 0.002,0 0.007,-0.002 0.01,-0.004 z m 0.0195,-0.008 c 0.003,-0.002 0.004,-0.004 0.002,-0.004 -0.002,0 -0.007,0.002 -0.01,0.004 -0.003,0.002 -0.004,0.004 -0.002,0.004 0.002,0 0.007,-0.002 0.01,-0.004 z"
       id="path3026"
       inkscape:connector-curvature="0" />
    <path
       style="fill:#000040"
       d="m 270.88711,394.73054 0.001,-0.0199 0.32422,-0.12283 c 1.3963,-0.52899 2.50473,-0.95892 4.15039,-1.60981 l 0.31445,-0.12437 -0.001,-0.33497 c -7.5e-4,-0.18423 -0.002,-0.3392 -0.004,-0.34438 l -0.003,-0.009 -0.0703,0.0267 c -0.0387,0.0147 -0.39463,0.15418 -0.79102,0.31003 -1.01266,0.39816 -3.87465,1.51031 -3.91504,1.52137 -0.005,0.001 -0.007,-5.7e-4 -0.007,-0.01 l 0,-0.0115 0.26465,-0.10085 c 0.86285,-0.32883 2.51785,-0.97195 3.51855,-1.36729 1.22723,-0.48482 1.1966,-0.47293 1.22852,-0.47722 0.01,-0.001 0.0167,-0.001 0.0156,-3e-4 -0.001,0.001 -0.0424,0.0183 -0.0918,0.0383 -0.0494,0.0199 -0.0909,0.0378 -0.0922,0.0398 -0.002,0.004 -0.003,0.0163 -0.0133,0.18272 -0.007,0.10953 -0.0197,0.36876 -0.0237,0.46643 -0.003,0.0636 -0.002,0.0659 0.005,0.0631 0.004,-0.002 0.0363,-0.014 0.0718,-0.0276 0.12708,-0.0486 0.37658,-0.14785 1.10938,-0.4414 0.40927,-0.16395 0.75966,-0.30353 0.77863,-0.31018 0.019,-0.007 0.0401,-0.012 0.0469,-0.0119 l 0.0124,1.5e-4 -0.011,0.006 c -0.019,0.0103 -0.24671,0.10361 -0.75467,0.30927 -1.89308,0.76642 -3.72222,1.48575 -5.59961,2.20209 -0.24599,0.0939 -0.45131,0.17223 -0.45626,0.17416 -0.009,0.003 -0.009,0.003 -0.008,-0.0164 z"
       id="path3028"
       inkscape:connector-curvature="0" />
    <path
       style="fill:#000040"
       d="m 270.88729,394.36876 10e-4,-0.33483 0.24219,-0.093 c 1.38282,-0.53095 3.01728,-1.16804 4.3059,-1.67838 0.12528,-0.0496 0.22855,-0.0902 0.22949,-0.0902 9.5e-4,0 0.002,0.15249 0.002,0.33887 l -5e-5,0.33886 -0.80366,0.31734 c -1.43387,0.56617 -1.92827,0.75728 -3.92437,1.517 -0.0277,0.0105 -0.051,0.0192 -0.0518,0.0192 -7.6e-4,0 -9.4e-4,-0.15067 -3.9e-4,-0.33483 z"
       id="path3030"
       inkscape:connector-curvature="0" />
  </g>
</svg>
